^C:\USERS\TYLER\SOURCE\REPOS\ASSIGNMENT3\ASSIGNMENT3\ASSIGNMENT 3 - POINTERS\ASSIGNMENT 3 - POINTERS\MAIN.CPP
C:\USERS\TYLER\SOURCE\REPOS\ASSIGNMENT3\ASSIGNMENT3\ASSIGNMENT 3 - POINTERS\ASSIGNMENT 3 - POINTERS\X64\DEBUG\VC141.PDB
C:\USERS\TYLER\SOURCE\REPOS\ASSIGNMENT3\ASSIGNMENT3\ASSIGNMENT 3 - POINTERS\ASSIGNMENT 3 - POINTERS\X64\DEBUG\VC141.IDB
C:\USERS\TYLER\SOURCE\REPOS\ASSIGNMENT3\ASSIGNMENT3\ASSIGNMENT 3 - POINTERS\ASSIGNMENT 3 - POINTERS\X64\DEBUG\MAIN.OBJ
