^C:\USERS\TYLER\SOURCE\REPOS\ASSIGNMENT3\ASSIGNMENT3\ASSIGNMENT 3 - POINTERS\ASSIGNMENT 3 - POINTERS\X64\DEBUG\MAIN.OBJ
C:\USERS\TYLER\SOURCE\REPOS\ASSIGNMENT3\ASSIGNMENT3\ASSIGNMENT 3 - POINTERS\X64\DEBUG\ASSIGNMENT 3 - POINTERS.EXE
C:\USERS\TYLER\SOURCE\REPOS\ASSIGNMENT3\ASSIGNMENT3\ASSIGNMENT 3 - POINTERS\X64\DEBUG\ASSIGNMENT 3 - POINTERS.ILK
C:\USERS\TYLER\SOURCE\REPOS\ASSIGNMENT3\ASSIGNMENT3\ASSIGNMENT 3 - POINTERS\X64\DEBUG\ASSIGNMENT 3 - POINTERS.PDB
